Allison Siddaway,Graduate Environmental Scientist,Brisbane,21 McLachlan St,+61 7 3828 6900,+61 7 3828 6999
Astrid Lenz,HR Coordinator and Office Administrator,Brisbane,21 McLachlan St,+61 7 3828 6900,+61 7 3828 6999
Bill Ryall,Senior Principal Scientist,Sydney,6 Elliott St,+61 2 9238 6114,+61 2 8918 8899
Brad May,Managing Director - Australia,Brisbane,21 McLachlan St,+61 7 3828 6900,+61 7 3828 6999
Brett Sutton,Project Environmental Engineer,Sydney,6 Elliott St,+61 2 9238 6114,+61 2 8918 8899
Brett Taylor,Senior Ecologist,,21 McLachlan St,+61 7 3828 6900,+61 7 3303 8776
Bridget Goldsworthy,Student,,21 McLachlan St,+61 7 3828 6900,+61 7 3828 6999
Charlotte Gidley,Project Environmental Scientist,Sydney,6 Elliott St,+61 2 9238 6114,+61 2 8918 8899
Christine Cowey,Graduate Environmental Scientist - Hydrogeologist,,,+61 7 3828 6900,+61 7 3828 6999
Christine Kennelly,Project Environmental Scientist,,21 McLachlan St,+61 7 3828 6900,+61 7 3828 6999
Clay Tappan,Engineer,Brisbane,21 McLachlan St,,+61 7 3828 690=
Craig Miller,Associate Environmental Scientist,Brisbane,21 McLachlan St,+61 7 3828 6900,+61 7 3828 6999
Craig Streatfeild,Senior Environmental Scientist,Brisbane,21 McLachlan St,+61 7 3828 6900,+61 7 3828 6999
Daniel Condon,Graduate Environmental Scientist,,,,
Daniel Evans,Environmental Scientist,,,,
David Elmouttie,Project Environmental Scientist,,21 McLachlan St,+61 7 3828 6900,+61 7 3303 8776
David Murray,Principal Engineer,Brisbane,21 McLachlan St,+61 7 3828 6900,+61 7 3828 6999
Ed Boucaut,Principal Environmental Scientist,Melbourne,Level 1, 181 Bay St,+61 3 9595 3837,+61 3 9595 3800
Emily Donohue,Administrative Assistant,,21 McLachlan St,+61 7 3828 6900,+61 7 3828 6999
Emma Barry,Project Environmental Scientist,,21 McLachlan St,+61 7 3828 6900,+61 7 3828 6999
Evan O'Brien,Senior Engineer,,21 McLachlan St,+61 7 3828 6900,+61 7 3828 6999
Frank Ganendran,CEO Australia & East Asia,Brisbane,21 McLachlan St,+61 7 3828 6900,+61 7 3828 6999
Gonzalo Parra,Associate Environmental Scientist,Sydney,6 Elliott St,+61 2 9238 6114,+61 2 8918 8899
Greg Hopgood,Environmental Engineer,Brisbane,21 McLachlan St,+61 7 3828 6900,+61 7 3828 6999
Hannah McColl-Wayne,Graduate Environmental Scientist,Brisbane,21 McLachlan St,+61 7 3828 6900,+61 7 3828 6999
Jacob Tobin,Senior Environmental Scientist,Brisbane,21 McLachlan St,+61 7 3828 6900,+61 7 3828 6999
Janice Lloyd,Accounts,Brisbane,21 McLaclan St,+61 7 3828 6900,+61 7 3828 6999
Jay Sindorff,ITC Manager,Brisbane,21 McLachlan St,+61 7 3828 6900,+61 7 3828 6999
Jessica Bianchi,Environmental Planner,Brisbane,21 McLachlan St,+61 7 3828 6900,+61 7 3828 6999
Jocelyn Bowyer,Environmental Scientist,Brisbane,21 McLachlan St,+61 7 3828 6900,+61 7 3828 6999
John Leyland,Senior Hydrogeologist,Brisbane,21 McLachlan St,+61 7 3828 6900,+61 7 3828 6999
Jorge Acevedo,Graduate Environmental Scientist,Brisbane,21 McLachlan St,+61 7 3828 6900,+61 7 3828 6999
Joseph Sheriff,Graduate Environmental Scientist,Brisbane,21 McLachlan St,+61 7 3828 6900,+61 7 3828 6999
Kim Delaney,Environmental Scientist,Brisbane,21 McLachlan St,+61 7 3828 6900,+61 7 3828 6999
Kylie Bradley,Associate Environmental Scientist,Brisbane,21 McLachlan St,+61 7 3828 6900,+61 7 3828 6999
Lee Pryor,Regional IT Manager - Asia Pacific,,21 McLachlan St,+61 7 3828 6900,+61 7 3828 6999
Lynne Higgs,Office Administrator,Sydney,6 Elliott St,+61 2 9238 6114,+61 2 8918 8899
Mandi McDowall,Senior Environmental Engineer,Melbourne,Level 1, 181 Bay St,+61 3 9595 3837,+61 3 9595 3800
Marco van Winden,Principal Engineer,Brisbane,21 McLachlan St,+61 7 3828 6900,+61 7 3828 6999
Mark Breitfuss,National Business Development Manager,Brisbane,21 McLachlan St,+61 7 3828 6900,+61 7 3828 6999
Marko Draganic,Graduate GIS Analyst,Brisbane,21 McLachlan St,+61 7 3828 6900,+61 7 3828 6999
Melinda Bergmann,Senior Environmental Consultant,,21 McLachlan St,+61 7 3828 6900,+61 7 3828 6999
Michelle Cooke,Senior Environmental Scientist,Brisbane,21 McLachlan St,+61 7 3828 6900,+61 7 3828 6999
Mike Mitchell,Principal Environmental Scientist,Brisbane,21 McLachlan St,+61 7 3828 6900,+61 7 3828 6999
Miles Matheson,Senior Drafter / CADD Technician,,,+61 7 3828 6900,+61 7 3828 6999
Miranda Weston,Senior Environmental Consultant,Brisbane,21 McLachlan St,+61 7 3828 6900,+61 7 3828 6999
Neil Page,Graduate Environmental Scientist,,,+61 7 3828 6900,+61 7 3828 6999
Nicholle Moody,Administrative Assistant,Brisbane,21 McLachlan St,+61 7 3828 6900,+61 7 3828 6999
Prue Pettett,Graduate Environmental Scientist,Brisbane,21 McLachlan St,+61 7 3828 6900,+61 7 3828 6999
Putri Shintodewi,Project Environmental Engineer,Brisbane,21 McLachlan St,+61 7 3828 6900,+61 7 3828 6999
Rachel Hengst,Graduate Environmental Scientist,,,,
Rebecca McNicholl,Project Environmental Engineer,Brisbane,21 McLachlan St,+61 7 3828 6900,+61 7 3828 6999
Rebecca Organo,Senior Associate Environmental Scientist,Sydney,6 Elliott St,+61 2 9238 6114,+61 2 8918 8899
Reece McCann,Environmental Scientist,Brisbane,21 McLachlan St,+61 7 3828 6900,+61 7 3828 6999
Ritnesh Syna,Project Environmental Scientist,Sydney,6 Elliott St,+61 2 9238 6114,+61 2 8918 8899
Roger Waters,Primary Title,Brisbane,21 McLachlan St,+61 7 3828 6900,+61 7 3303 8776
Romin Nejad,Senior Environmental Engineer,Brisbane,21 McLachlan St,+61 7 3828 6900,+61 7 3828 6999
Ross Davis,Graduate Environmental Scientist,Brisbane,21 McLachlan St,+61 7 3828 6900,+61 7 3828 6999
Ryan Stewart,Graduate Environmental Scientist,Brisbane,21 McLachlan St,+61 7 3828 6900,+61 7 3828 6999
Sam Maynard,Senior Environmental Scientist,Brisbane,21 McLachlan St,+61 7 3828 6900,+61 7 3828 6999
Scott Lambert,Senior Environmental Scientist,Brisbane,21 McLachlan St,+61 7 3828 6900,+61 7 3828 6999
Scott Wang,Project Environmental Scientist,,,+61 7 3828 6900,+61 7 3828 6999
Simon Witney,Principal Environmental Planner,Sydney,6 Elliott St,+61 2 9238 6114,
Steph Scott,Marketing Coordinator,Brisbane,21 McLachlan St,+61 7 3828 6900,+61 7 3828 6999
Stephen Whiteside,Associate Environmental Scientist,,,,
Tim Kinny,Environmental Town Planner,,21 McLachlan St,+61 7 3828 6900,+61 3303 8776
Tim Wright,Associate Environmental Scientist,Sydney,6 Elliott St,+61 2 9238 6114,+61 2 8918 8899
